Token write                Line: 1     Column: 1    
Token Bracket open         Line: 1     Column: 6    
Token Identifier           Line: 1     Column: 7     Lexem: n
Token Bracket closing      Line: 1     Column: 8    
Token Semicolon            Line: 1     Column: 9    
Token read                 Line: 2     Column: 1    
Token Bracket open         Line: 2     Column: 5    
Token Identifier           Line: 2     Column: 6     Lexem: n
Token Bracket closing      Line: 2     Column: 7    
Token Semicolon            Line: 2     Column: 8    
Token read                 Line: 3     Column: 1    
Token Bracket open         Line: 3     Column: 5    
Token Identifier           Line: 3     Column: 6     Lexem: n
Token Bracket closing      Line: 3     Column: 7    
Token Semicolon            Line: 3     Column: 8    
Token Curly bracket open   Line: 4     Column: 1    
Token Identifier           Line: 4     Column: 3     Lexem: n
Token Assign               Line: 4     Column: 5    
Token Integer              Line: 4     Column: 8     Value: 3
Token Semicolon            Line: 4     Column: 9    
Token Identifier           Line: 4     Column: 11    Lexem: n
Token Assign               Line: 4     Column: 13   
Token Integer              Line: 4     Column: 16    Value: 4
Token Semicolon            Line: 4     Column: 17   
Token Curly bracket close  Line: 4     Column: 19   
Token Semicolon            Line: 4     Column: 20   
Token Identifier           Line: 5     Column: 1     Lexem: n
Token Assign               Line: 5     Column: 3    
Token Integer              Line: 5     Column: 6     Value: 3
Token Semicolon            Line: 5     Column: 7    
