int i;
int i1;

float f;
float f1;

i = 3;
write(i);

f = 45;
write(f);

write(1111);
read(i);
write(i);

write(22222);
read(f);
write(f);


{i = 33; f= 4444;};

if (0) { i = 5; write(i);}
else {f = 55; write (f);};
write(55);
 
if (1) { i = 5; write(i);}
else {f = 55; write (f);};
write(5);

i = 6;
i = i -1;
write (i);
write (5);

while (i){ write(i); i = i -1;};

write(3333);
i = (3333);
write (i);

write(4444);
i1= 4444;
i = i1;
write (i);
i = -i1;
write(-4444);
write (i);
i = !i1;
write (i);

write(-44444444);
f1 = 44444444;
f = -f1;
write (f);

i = 11;
f = float i;
write( f);
write(110);

write (3 +4);
write(7);
write ( 3-4);
write(-1);
write (3 * 4);
write(12);
write (44 * 4);
write(11);
write ( 3 < 4);
write(1);
write (4 < 3);
write(0);
write ( 3 = 4);
write(0);
write ( 3 = 3);
write ( 3 & 4);
write ( 0 & 4);

write (35 +466);
write ( 35-46);
write (35 * 46);
write (444 * 40);
write ( 33 < 44);
write (44 < 33);
write ( 33 = 43);
write ( 33 = 33);


