float b;
int a;
a = ((4 +5) -(2 +7)) + a;
a = ((4 +5) -(2 +7)) + a;
a = ((4 +5) -(2 +7)) + a;
a = ((4 +5) -(2 +7)) + a;
a = ((4 +5) -(2 +7)) + a;
a = ((4 +5) -(2 +7)) + a;
a = ((4 +5) -(2 +7)) + a;
a = ((4 +5) -(2 +7)) + a;
a = ((4 +5) -(2 +7)) + a;
a = ((4 +5) -(2 +7)) + a;
a = ((4 +5) -(2 +7)) + a;
a = ((4 +5) -(2 +7)) + a;
a = ((4 +5) -(2 +7)) + a;
a = ((4 +5) -(2 +7)) + a;
a = ((4 +5) -(2 +7)) + a;
a = ((4 +5) -(2 +7)) + a;
a = ((4 +5) -(2 +7)) + a;
a = ((4 +5) -(2 +7)) + a;
a = ((4 +5) -(2 +7)) + a;
a = a + b;
a = a + 35;